<svg
  xmlns="http://www.w3.org/2000/svg"
  xmlns:xlink="http://www.w3.org/1999/xlink"
  width="15px" height="10px">
  <path fill-rule="evenodd"  fill="rgb(53, 60, 68)"
        d="M9.408,10.000 L1.143,10.000 C0.512,10.000 0.001,9.480 0.001,8.838 L0.001,8.838 L0.001,1.159 C0.001,0.518 0.512,-0.003 1.143,-0.003 L9.408,-0.003 C10.039,-0.003 10.550,0.518 10.550,1.161 L10.550,8.838 C10.550,9.480 10.039,10.000 9.408,10.000 M15.000,7.863 L12.199,6.963 L12.199,3.034 L14.999,2.134 L14.999,7.863 L15.000,7.863 Z"/>
</svg>
