<svg
  xmlns="http://www.w3.org/2000/svg"
  xmlns:xlink="http://www.w3.org/1999/xlink"
  width="13.125px" height="10.125px">
  <path fill-rule="evenodd"  stroke="rgb(53, 60, 68)" stroke-width="2.083px" stroke-linecap="butt" stroke-linejoin="miter" fill="none"
        d="M10.283,2.040 L6.040,6.282 L1.798,2.040 "/>
</svg>
